Eliot Jacobson’s Plot of North Atlantic Sea Temperature Anomaly
…
Cleaning

R reads in this data as a data frame, with the name column referring to year and the data column referring to a vector of temperature readings. This means we have a nested data frame that needs to be un-nested. Let’s also turn this into a tibble while we’re at it.

raw <- 
  fromJSON(link) |> 
  as_tibble() |> 
  unnest(data) 

raw

# A tibble: 16,836 × 2
   name   data
   <chr> <dbl>
 1 1981     NA
 2 1981     NA
 3 1981     NA
 4 1981     NA
 5 1981     NA
 6 1981     NA
 7 1981     NA
 8 1981     NA
 9 1981     NA
10 1981     NA
# ℹ 16,826 more rows
…
df <- 
  raw |> 
  filter(!name %in% c("1981", 
                      "1982-2011 mean", 
                      "plus 2σ",
                      "minus 2σ")) |>        # filter out rows we don't want
  group_by(name) |>                          # establish groups
  mutate(elapsed_days = row_number()) |>     # mutate a rank for each elapsed day
  ungroup() |>                               # remove groups
  rename(year = name, surface_temp = data)   # rename columns

df

# A tibble: 15,372 × 3
   year  surface_temp elapsed_days
   <chr>        <dbl>        <int>
 1 1982          20.1            1
 2 1982          20.1            2
 3 1982          20              3
 4 1982          20.0            4
 5 1982          20.0            5
 6 1982          20.0            6
 7 1982          20.0            7
 8 1982          19.9            8
 9 1982          19.8            9
10 1982          19.8           10
# ℹ 15,362 more rows
…
Difference between mean and observed temperature (diff_surface_temp)

Mean surface temp

To calculate mean surface temp, we can group by the elapsed_days column we mutated in the last step and then summarize surface_temp by mean. Remember, we’re only using data from 1991-2020 to calculate these means.

mu <- 
  df |> 
  filter(year %in% 1991:2020) |>                    # filter for years we are interested in
  group_by(elapsed_days) |>                         # establish groups
  summarize(mean_surface_temp = mean(surface_temp)) # summarize by returning the mean surface temp for each group

mu

# A tibble: 366 × 2
   elapsed_days mean_surface_temp
          <int>             <dbl>
 1            1              20.3
 2            2              20.3
 3            3              20.2
 4            4              20.2
 5            5              20.2
 6            6              20.1
 7            7              20.1
 8            8              20.1
 9            9              20.1
10           10              20.0
# ℹ 356 more rows

The object we created to store the means, mu, now needs to be joined back into our data so that the differences can be calculated.

df <-
  df |> 
  left_join(mu)

Joining with `by = join_by(elapsed_days)`

df

# A tibble: 15,372 × 4
   year  surface_temp elapsed_days mean_surface_temp
   <chr>        <dbl>        <int>             <dbl>
 1 1982          20.1            1              20.3
 2 1982          20.1            2              20.3
 3 1982          20              3              20.2
 4 1982          20.0            4              20.2
 5 1982          20.0            5              20.2
 6 1982          20.0            6              20.1
 7 1982          20.0            7              20.1
 8 1982          19.9            8              20.1
 9 1982          19.8            9              20.1
10 1982          19.8           10              20.0
# ℹ 15,362 more rows

Difference surface temperature

The last variable we need is simply the difference between surface_temp and mean_surface_temp.

prep <-
  df |> 
  mutate(diff = surface_temp - mean_surface_temp)

prep

# A tibble: 15,372 × 5
   year  surface_temp elapsed_days mean_surface_temp   diff
   <chr>        <dbl>        <int>             <dbl>  <dbl>
 1 1982          20.1            1              20.3 -0.172
 2 1982          20.1            2              20.3 -0.210
 3 1982          20              3              20.2 -0.244
 4 1982          20.0            4              20.2 -0.197
 5 1982          20.0            5              20.2 -0.183
 6 1982          20.0            6              20.1 -0.164
 7 1982          20.0            7              20.1 -0.147
 8 1982          19.9            8              20.1 -0.158
 9 1982          19.8            9              20.1 -0.210
10 1982          19.8           10              20.0 -0.232
# ℹ 15,362 more rows
…
